{
  "title": "CV Vladimir Semashko",
  "name": "Vladimir Semashko",
  "objective": "Software Engineer",
  "phone": "+375298813625",
  "email": "vladimir.semashko.88@gmail.com",
  "languages": [
    {
      "name": "Russian",
      "proficiency": "Native"
    },
    {
      "name": "English",
      "proficiency": "Intermediate"
    }
  ],
  "educations": [
    {
      "institutionName": "Yanka Kupala state University of Grodno",
      "major": "Software Information Technology",
      "period": "2006-2011",
      "degree": "Bachelor degree"
    }
  ],
  "skillCategories": [
    {
      "category": "Operation systems",
      "skills": [
        "Windows",
        "Linux (CentOS, Debian)",
        "Mac"
      ]
    },
    {
      "category": "Development tools",
      "skills": [
        "IntelliJ IDEA",
        "IntelliJ Webstorm",
        "Eclipse"
      ]
    },
    {
      "category": "Databases",
      "skills": [
        "Oracle",
        "PostgreSQL",
        "MySQL",
        "MongoDB"
      ]
    },
    {
      "category": "Languages",
      "skills": [
        "JavaScript",
        "Java",
        "TypeScript",
        "HTML",
        "CSS",
        "SQL",
        "DDL",
        "XML",
        "bash"
      ]
    },
    {
      "category": "Technologies",
      "skills": [
        "Angular.js",
        "Angular2",
        "node.js",
        "webpack",
        "gulp",
        "Hibernate",
        "Spring",
        "Tomcat",
        "Maven"
      ]
    },
    {
      "category": "CASE",
      "skills": [
        "Enterprise Architect",
        "PowerDesigner",
        "yEd"
      ]
    },
    {
      "category": "Bug-Tracking",
      "skills": [
        "JIRA",
        "Redmine",
        "Bugzilla"
      ]
    },
    {
      "category": "VCS",
      "skills": [
        "git",
        "svn"
      ]
    }
  ],
  "employments": [
    {
      "company": "Godel Technologies Europe",
      "period": "August 2015-Present",
      "position": "Software Engineer",
      "projects": [
        {
          "responsibilities": "Development, code review, system architecture design, communication with customer",
          "description": "Travel booking project",
          "technologies": [
            "Angular2",
            "TypeScript",
            "Angular1.5",
            "nodejs",
            "gulp",
            "less"
          ]
        },
        {
          "responsibilities": "Development, code review, system architecture design, communication with customer",
          "description": "Service for green tariff maintenance",
          "technologies": [
            "Java",
            "Javascript",
            "AngularJs",
            "Spring",
            "Hibernate",
            "PostgreSQL",
            "Tomcat",
            "nodejs",
            "maven",
            "gulp"
          ]
        },
        {
          "responsibilities": "Develpoment, communication with customer",
          "description": "Plugin for shopify for user feedbacks",
          "technologies": [
            "Javascript",
            "jquery",
            "css",
            "browserify",
            "handlebars.js",
            "gulp"
          ]
        }
      ]
    },
    {
      "company": "Intexsoft",
      "period": "August 2010-August 2015",
      "position": "Software Engineer",
      "projects": [
        {
          "responsibilities": "Development, communication with customer",
          "description": "Web application for public transport. It provides possibilities to search routes, timetables and to view transport travels in real time",
          "technologies": [
            "Angular.js",
            "Java",
            "Liferay",
            "Tomcat",
            "git",
            "maven"
          ]
        },
        {
          "responsibilities": "Development, communication with customer",
          "description": "Conversation plugin for online consultants. Contain two parts – internal consultant’s plugin which handle conversations with external enquirers and external system plugin which handle conversation on enquirer system",
          "technologies": [
            "Java",
            "Javascript",
            "JQuery",
            "Tomcat",
            "SVN",
            "maven",
            "CometD"
          ]
        },
        {
          "responsibilities": "Product development, develop different kinds of image workflows, workers creation and processes delegation to reduce main module workload, integration of QR Codes support, develop monitoring tools for synchronizer application, develop projects ordering, projects drag and drop, modules support, versions migration",
          "description": "Module-based system for different media production. Contain modules for different purposes, such as catalog management, project management, media asset management, product information management, workflow automation, different planning and control tools",
          "technologies": [
            "Java",
            "Flex",
            "Javascript",
            "hibernate",
            "spring",
            "Oracle",
            "Tomcat",
            "JSP",
            "Servlets",
            "Git",
            "ant",
            "maven",
            "Velocity",
            "Axis",
            "SOAP",
            "WSDL",
            "JUnit",
            "helios",
            "imagemagic",
            "batch",
            "bash",
            "Quark",
            "server",
            "zxing",
            "JProfiler"
          ]
        },
        {
          "responsibilities": "Backend persistence and configuration, create transformations from product presentation in flex to print PDF",
          "description": "Lightweight editor to create layouts of photo books, brochures, calendars and other products from browser",
          "technologies": [
            "Java",
            "XSLT",
            "FOP",
            "hibernate",
            "Spring",
            "Maven",
            "Javascript",
            "Rhino",
            "Velocity",
            "GWT",
            "Flex",
            "MySQL",
            "Tomcat",
            "Servlets",
            "SVN"
          ]
        },
        {
          "responsibilities": "Database migration, flex price calclulator development, joomla cms integration, parallelization of the heavy product generation processes, performance testing",
          "description": "Software designed to create a digital photo printing service. Software consists of several modules that represent complete business process. That is product creation, product order, product processing, manufacturing and shipping. ",
          "technologies": [
            "Java",
            "hibernate",
            "Spring",
            "Maven",
            "Javascript",
            "Rhino",
            "Velocity",
            "GWT",
            "Wicket",
            "Flex",
            "iText",
            "joomla",
            "html",
            "css",
            "MySQL",
            "Tomcat",
            "Servlets",
            "SVN",
            "LDAP",
            "PRC",
            "JBOSS",
            "JUnit",
            "JProfiler"
          ]
        }
      ]
    }
  ]
}